{
    "url": "https://tokyo.datalog-finance.com:8443/tmsdecathlon50/",
    "loginUrl": "https://tokyo.datalog-finance.com:8443/tmsdecathlon50/Dispatch.wss?handler=vxslogin",
    
    "user": "VXADMIN",
    "validUser": "VALIDBDS",
    "password":"1234",
    "lang": "0|fr",
    
    "newUser":"USER-DCT-01",
    "oldPassword": "1234",
    "newPassword": "123456",
    
    "codeProfils" : "9999",
    "newcollege":"DCT-COLLEGE-01",
    "newGroupe":"DCT-GROUPE-01",
    "codeRole" : "DCT-ROLE-01",
    "codeDomaine" : "DCT-DOMAINE-01",

    "motifEco" : "DCT-MOTIF-ECO",
    "motifRej" : "DCT-MOTIF-REJ",
    "codeBic" : "DCT-CODE-BIC",
    "codeBicIban" : "DCT-BIC-IBAN",
    "zoneUtili" : "LEG-ZON-UTI",

    "agentEntity" : "AGENT-DCT-01",
    "issuerEntity" : "ISSUER-DCT-01",
    "bankEntity" : "BANK-DCT-01",
    "benefEntity" : "BENEF-DCT-01",
    "secissuerEntity" : "SECISSUER-DCT-01",
    "nettingEntity" : "NETTING-DCT-01",
    "internalEntity" : "INTERNAL-DCT-01",
    "ihbEntity" : "IHB-DCT-01",
    "guaranteeBenefEntity" : "GUA-BENEF-DCT-01",
    "ecnEntity" : "ECN-DCT-01",
    "domiciliationEntity" : "DOM-DCT-01",
    "custodianEntity" : "CUS-DCT-01",
    "cptyEntity" : "CPTY-DCT-01",
    "counterGuarantorEntity" : "COUNT-GUA-DCT-01",
    "clrEntity" : "CLR-DCT-01",
    "ccpEntity" : "CCP-DCT-01",
    "brkEntity" : "BRK-DCT-01",
    "bkeEntity" : "BKE-DCT-01",

    "nameEntity": "ENTITY-DCT-01",
    "nameEntityDup": "ENTITY-DCT-DUP",
    "nameBank": "BANK-DCT-01",
    "nameBankDup": "BANK-DCT-DUP",
    "nameAgence": "AGENCE-DCT-01",
    "nameSecondAgence": "AGENCE-DCT-01-1",
    "nameCategory" : "CATEGORIE-DCT-01",
    "nameSecondCategory" : "CATEGORIE-DCT-01-1",
    "nameCompteEntity": "COMPTE-ENTITY-DCT-1",
    "nameCompteEntityRappro": "COMPTE-Rappro-DCT-1",
    "nameCompteEntityTreso": "COMPTE-Treso-DCT-1",
    "benefOfEntity": "BENEF-DCT-03",
    "benefOfEntityDup": "BENEF-DCT-DUP",
    "benefOfCompteEntity": "NA_BENEF-DCT-03",
    "benefOfCompteEntityDup": "NA_BENEF-DCT-DUP",
    "regrEntity" : "REGR-ENTITY-DCT-01",
    "regrCompte" : "REGR-COMPTE-DCT-01",
    "regrEmetteur" : "REGR-EMETTEUR-DCT-01",
    "codePays" : "aa",
    "devises" : "ZZZ",
    "codeDevises" : "ZWD",
    "deviseOne" : "USD",
    "deviseTwo" : "ZWD",
    "courDeviseOne" : "USD",
    "courDeviseTwo" : "ZWD",
    
    "compteBancExp" : "DCT-BANC-EXPL",
    "compteBancFin" : "DCT-BANC-FINC",
    "compteBancNa" : "DCT-BANC-NA",
    "compteBudgetNa" : "DCT-BUDG-NA",
    "compteCourantNa" : "DCT-COUR-NA",
    "compteCourantNetting" : "DCT-COUR-NETT",
    "compteInfoInfo" : "DCT-INFO-INFO",
    "compteInfoNa" : "DCT-INFO-NA",
    "compteInfoPro" : "DCT-INFO-PRO",
    "compteNaNa" : "DCT-NA-NA",
    
    "fileAct" : "FILE_ACT-02",
    "fileActDup" : "FILE_ACT_DUP-01",
    "liteFileAct" : "LITE_FILE_ACT-01",
    "liteFileActDup" : "LITE_FILE_ACT_DUP-01",
    "fin" : "FIN-01",
    "finDup" : "FIN_DUP-01",
    "liteFin" : "LITE_FIN-01",
    "liteFinDUP" : "LITE_FIN_DUP-01",
    "ebics" : "EBICS-01",
    "ebicsDup" : "EBICS_DUP-01",
    "ParamComm" : "PARAM_COMM-01",
    "ParamCommDup" : "PARAM_COMM_DUP-01",
    "identificateur" : "IDENTIFICATEUR-01",
    "identificateurDup" : "IDENTIFICATEUR_DUP-01",
    "codePlan" : "PLANIFICATEUR-01",
    "codePlanDup" : "PLANIFICATEUR_DUP-01",
    "fileNamePlan" : "PLAN-01",
    "fileNamePlanDup" : "PLAN_DUP-01",
    "codeCalendriers" : "CALENDRIERS-DCT-01",
    "nameCalendriersDup" : "CALENDRIERS-DCT-DUP",
    
    "codeInter" : "DCT-CODE-INTER",
    "catCodeFlux" : "DCT-CAT-CODE-FLUX",
    "codeFlux" : "DCT-CODE-FLUX",
    "catCodeBudget" : "DCT-CAT-CODE-BUD",
    "codeBudget" : "DCT-CODE-BUDGET",
    "codeFacture" : "DCT-CODE-FACTURE",
    "codeTypeBab" : "DCT-TYPE-BAB",
    "codeCreditCt" : "DCT-CREDIT-CT",
    "codePlacTerme" : "DCT-PLAC-TERME",
    "codeSicav" : "DCT-CODE-SICAV",
    "codeAchatVenteDevise" : "DCT-ACHAT-VENTE",

    "nomEquivalence" : "DCT-EQUI-01",
    "nomEquivalenceDup" : "DCT-EQUI-DUP",
    "libelleRegrRappro" : "DCT-REG-RAPPRO",
    "libelleRegrSimples" : "DCT-REG-SIMPLES",
    "libelleReglesAvecRegr" : "DCT-REGL-REGR",
    "libelleReglesAvecRegrDup" : "DCT-REGL-REGR-DUP",
    "libelleReglesAutoRapproDup" : "DCT-REGL-REGR-DUP",
    "natureComp" : "DCT-NATURE-COMP-01",

    "nomTabCorr" : "DCT-TAB-CORR-01",
    "formatImpExp" : "DCT-FOR-IMPEXP-01",
    "interImport" : "DCT-INT-IMP-01",
    "interExport" : "DCT-INT-EXP-01",
    "regleDispatch" : "DCT-REG-DIS-01",
    
    "codeZoneUtilisateur" : "AAA",
    
    "userMat1" : "TACHE1",
    "userMat2" : "TACHE2",
    "userMat3" : "TACHE3",
    "userMat4" : "TACHE4",
    "userMat5" : "TACHE5",
    "userMat6" : "TACHE6",
    "userMat7" : "TACHE7",
    "userMat8" : "TACHE8",
    "userMat9" : "TACHE9",
    "userMat10" : "TACHE10",
    "userMat11" : "TACHE11",
    "userMat12" : "TACHE12",
    "userMat13" : "TACHE13",
    "userMat14" : "TACHE14",
    "userMat15" : "TACHE15",
    
    "condDebit" : "COND_DEBIT-01",
    "condCredit" : "COND_CREDIT-01",
    "faciliteCaisse" : "FACILITE_CAISSE-01",
    "compteCourant" : "COMPTE_COURANT-01",

    "downloadFolder": "C:\\Users\\TEKLEND\\Downloads",
    
    "test-user" : "TEST-ROLE",

    "operationName" : "Vir de Trésorerie",
    "operationNum" : "2",
    "matTypePaiement" : "N.A.",
    "entityA" : "ENTITY-A",
    "entityB" : "ENTITY-B",
    "entityC" : "ENTITY-C",
    "emetteurA" : "ENTITY-A - ENTITY-A",
    "emetteurB" : "ENTITY-B - ENTITY-B",
    "emetteurC" : "ENTITY-C - ENTITY-C",
    "senderAccountA": "COMPTEA",
    "senderAccountB": "COMPTEB",
    "senderAccountC": "COMPTEC",
    "groupeAb" : "GROUPE-AB",
    "groupeAbc" : "GROUPE-ABC",
    "refUserMat2" : "ENTITY-AB",
    "agenceBancABC" : "BANK_ABC",
    "firstCatAbc" : "CATEGORY-ABC-01",
    "secondCatAbc" : "CATEGORY-ABC-02",
    "benefOfEntityMat" : "BENEF-ABC-MAT",
    "benefOfCompteEntityMat" : "NA_BENEF-ABC-MAT",
    "nameOtherParam": "PARAM-MAT"
} 