{
        "url": "https://tokyo.datalog-finance.com:8443/tmseurofins50/",
        "loginUrl":"https://tokyo.datalog-finance.com:8443/tmseurofins50/Dispatch.wss?handler=vxslogin",
        "url_v4": "https://tokyo.datalog-finance.com:8443/tleurofins42/",
        "loginUrl_v4":"https://tokyo.datalog-finance.com:8443/tleurofins42/Dispatch.wss?handler=vxslogin",
        
        "user": "ADMIN",
        "validUser": "CFK6",
        "password":"1234",
        "lang": "0|fr",
        "lang_en": "1|en",

        
        "newUser":"USER-EFS-02",
        "oldPassword": "1234",
        "newPassword": "123456",
        
        "codeProfils" : "1001",
        "newcollege":"EFS-COLLEGE-03",
        "newGroupe":"EFS-GROUPE-02",
        "codeRole" : "EFS-ROLE-02",
        "codeDomaine" : "EFS-DOMAINE-02",

        "motifEco" : "EFS-MOTIF-ECO",
        "motifRej" : "EFS-MOTIF-REJ",
        "codeBic" : "EFS-CODE-BIC",
        "codeBicIban" : "EFS-BIC-IBAN",
        "zoneUtili" : "EFS-ZON-UTI",

        "agentEntity" : "AGENT-EFS-02",
        "ArrangerEntity" : "ARRANGER-EFS-02",
        "issuerEntity" : "ISSUER-EFS-02",
        "bankEntity" : "BANK-EFS-02",
        "benefEntity" : "BENEF-EFS-02",
        "secissuerEntity" : "SECISSUER-EFS-02",
        "nettingEntity" : "NETTING-EFS-02",
        "internalEntity" : "INTERNAL-EFS-02",
        "ihbEntity" : "IHB-EFS-02",
        "guaranteeBenefEntity" : "GUA-BENEF-EFS-02",
        "ecnEntity" : "ECN-EFS-02",
        "domiciliationEntity" : "DOM-EFS-02",
        "custodianEntity" : "CUS-EFS-02",
        "cptyEntity" : "CPTY-EFS-02",
        "counterGuarantorEntity" : "COUNT-GUA-EFS-02",
        "clrEntity" : "CLR-EFS-02",
        "ccpEntity" : "CCP-EFS-02",
        "brkEntity" : "BRK-EFS-02",
        "bkeEntity" : "BKE-EFS-02",
        "calculAgentEntity" : "CALAGENT-EFS-02",
        "ratingAgencyEntity" : "RATAGNC-EFS-02",

        "nameEntity": "ENTITY-EFS-03",
        "nameEntityDup": "ENTITY-EFS-DUP",
        "nameBank": "BAN-EFS-03",
        "nameBankDup": "BAN-EFS-DUP",
        "nameAgence": "AGENCE-EFS-03",
        "nameSecondAgence": "AGENCE-EFS-DEL",
        "nameCategory" : "CATEGORIE-EFS-03",
        "nameSecondCategory" : "CATEGORIE-EFS-DEL",
        "nameCompteEntity": "COMPTE-ENTITY-EFS-3",
        "nameCompteEntityRappro": "COMPTE-RAPPRO-EFS-1",
        "nameCompteEntityTreso": "COMPTE-TRESO-EFS-1",
        "benefOfEntity": "BENE-EFS-03",
        "benefOfEntityDup": "BENE-EFS-DUP",
        "benefOfCompteEntity": "NA_BENE-EFS-03",
        "benefOfCompteEntityDup": "NA_BENE-EFS-DUP",
        "regrEntity" : "REGR-ENTITY-EFS-01",
        "regrCompte" : "REGR-COMPTE-EFS-01",
        "regrEmetteur" : "REGR-EMETTEUR-EFS-01",
        "codePays" : "ZZ",
        "devises" : "ZZZ",
        "codeDevises" : "ZRN",
        "deviseOne" : "USD",
        "deviseTwo" : "ZWD",
        "paireDevises" : "",
        "courDeviseOne" : "USD",
        "courDeviseTwo" : "ZWD",
        
        "compteBancExp" : "EFS-BANC-EXP",
        "compteBancFin" : "EFS-BANC-FIN",
        "compteBancNa" : "EFS-BANC-NA",
        "compteBudgetNa" : "EFS-BUDG-01",
        "compteCourantNa" : "EFS-COUR-NA",
        "compteCourantNetting" : "EFS-COUR-NET",
        "compteInfoInfo" : "EFS-INFO",
        "compteInfoNa" : "EFS-INFO",
        "compteInfoPro" : "EFS-INFO",
        "compteNaNa" : "EFS-NA-NA",
        
        "fileAct" : "FILE_ACT-02",
        "fileActDup" : "FILE_ACT_DUP-02",
        "liteFileAct" : "LITE_FILE_ACT-02",
        "liteFileActDup" : "LITE_FILE_ACT_DUP-02",
        "fin" : "FIN-02",
        "finDup" : "FIN_DUP-02",
        "liteFin" : "LITE_FIN-02",
        "liteFinDUP" : "LITE_FIN_DUP-02",
        "ebics" : "EBICS-02",
        "ebicsDup" : "EBICS_DUP-02",
        "ParamComm" : "PARAM_COMM-02",
        "ParamCommDup" : "PARAM_COMM_DUP-02",
        "identificateur" : "IDENTIFICATEUR-02",
        "identificateurDup" : "IDENTIFICATEUR_DUP-02",
        "codePlan" : "PLANIFICATEUR-02",
        "codePlanDup" : "PLANIFICATEUR_DUP-02",
        "fileNamePlan" : "PLAN-02",
        "fileNamePlanDup" : "PLAN_DUP-02",
        "codeCalendriers" : "CALENDRIERS-EFS-02",
        "nameCalendriersDup" : "CALENDRIERS-EFS-DUP",
        
        "codeInter" : "EFS-CODE-INTER",
        "catCodeFlux" : "EFS-CAT-CODE-FLUX",
        "codeFlux" : "EFS-CODE-FLUX",
        "catCodeBudget" : "EFS-CAT-CODE-BUD",
        "codeBudget" : "EFS-CODE-BUDGET",
        "codeFacture" : "EFS-CODE-FACTURE",
        "codeTypeBab" : "EFS-TYPE-BAB",
        "codeCreditCt" : "EFSCREDITCT",
        "codePlacTerme" : "EFS-PLAC-TERME",
        "codeSicav" : "EFS-CODE-SICAV",
        "codeAchatVenteDevise" : "EFS-ACHAT-VENTE",

        "nomEquivalence" : "EFS-EQUI-01",
        "nomEquivalenceDup" : "EFS-EQUI-DUP",
        "libelleRegrRappro" : "EFS-REG-RAPPRO",
        "libelleRegrSimples" : "EFS-REG-SIMPLES",
        "libelleReglesAvecRegr" : "EFS-REGL-REGR",
        "libelleReglesAvecRegrDup" : "EFS-REGL-REGR-DUP",
        "libelleReglesAutoRapproDup" : "EFS-REGL-REGR-DUP",
        "natureComp" : "EFS-NATU",

        "nomTabCorr" : "EFS-TAB-CORR-03",
        "formatImpExp" : "EFS-FOR-IMPEXP-03",
        "interImport" : "EFS-INT-IMP-03",
        "interExport" : "EFS-INT-EXP-03",
        "regleDispatch" : "EFS-REG-DIS-02",

        "filtre" : "FIL-EFS-01",
        "filtreRapproTreso" : "FIL-RAP-TRS-03",
        "filtreFicheValeur" : "FIL-FICHE-VAL-03",
        "filtreSoldeBancaire" : "FIL-SOL-BAN-04",
        "filtreModifRafale" : "FIL-MOD-RAF-03",
        "filtreControleSoldes" : "FIL-CON-SOL-03",
        "filtreStatFlux" : "FIL-STAT-FLUX-03",
        "filtreStatCodesBudget" : "FIL-STAT-CODBUD-03",
        "filtreFraisBancaires" : "FIL-FRAIS-BAN-03",
        "filtreEchInteretCpteBancaire" : "FIL-ECH-CPTBAN-03",
        "filtreEchInteretCpteCourant" : "FIL-ECH-CPTCRN-03",
        "filtrePortSicav" : "FIL-POR-SICAV-03",
        "filtreAnalyseEcartPrev" : "FIL-ECRTPREV-03",
        "filtreRapproIntraday" : "FIL-RAP-INTRA-03",
        "filtreCondCtrl" : "FIL-COND-CTRL-03",
        "filtreEncoursGlobal" : "FIL-ENC-GLB-03",
        "filtresAnalyseFacturesFrais" : "FIL-ANL-FACFRS-03",
        "filtreEcheancierDette" : "FIL-ENHC-DETTE-03",
        "filtresPosTauxLiq" : "FIL-POS-TAUXLIQ-03",
        "FiltresPosChange" : "FIL-POS-CHANG-03",
        "FiltresPosTitre" : "FIL-POS-TIT-03",
        "FiltresAnalysePnL" : "FIL-ANALYS-PNL-03",
        "filtresReglmts" : "FIL-REGL-03",
        "filtresOperation" : "FIL-OPR-03",
        "filtresValorisation" : "FIL-VAL-03",
        "filtresPortefeuilles" : "FIL-PRT-03",
        "FiltresFundPerformance" : "FIL-FUND-PRF-03",
        "FiltresEncoursMoy" : "FIL-ENC-MOY-03",
        "FiltresPosChangeTerme" : "FIL-POS-CHGTRM-03",
        "FiltresHedgingRequest" : "FIL-HED-REQ-03",
        "FiltresHedgingFactory" : "FIL-HED-FAC-03",
        "FiltresEcrituresComptables" : "FIL-ECR-CPT-03",
        "filtresBalancesComptables" : "FIL-BAL-CPT-03",
        "filtresEvenementsComptables" : "FIL-EVE-CPT-03",
        
        "codeZoneUtilisateur" : "AAA",
        
        "userMat1" : "tache1",
        "userMat2" : "tache2",
        "userMat3" : "tache3",
        "userMat4" : "tache4",
        "userMat5" : "tache5",
        "userMat6" : "tache6",
        "userMat7" : "tache7",
        "userMat8" : "tache8",
        "userMat9" : "tache9",
        "userMat10" : "tache10",
        "userMat11" : "tache11",
        "userMat12" : "tache12",
        "userMat13" : "tache13",
        "userMat14" : "tache14",
        "userMat15" : "tache15",
        
        "condDebit" : "COND_DEBIT-01",
        "condCredit" : "COND_CREDIT-01",
        "faciliteCaisse" : "FACILITE_CAISSE-01",
        "compteCourant" : "COMPTE_COURANT-01",

        "downloadFolder": "C:\\Users\\TEKLEND\\Downloads",
        
        "test-user" : "TEST-ROLE",

        "operationName" : "Virements de Trésorerie",
        "operationNum" : "2",
        "matTypePaiement" : "N.A.",
        "entityA" : "ENTITY-A",
        "entityB" : "ENTITY-B",
        "entityC" : "ENTITY-C",
        "emetteurA" : "ENTITY-A - ENTITY-A",
        "emetteurB" : "ENTITY-B - ENTITY-B",
        "emetteurC" : "ENTITY-C - ENTITY-C",
        "senderAccountA": "COMPTEA",
        "senderAccountB": "COMPTEB",
        "senderAccountC": "COMPTEC",
        "groupeAb" : "GROUPE-AB",
        "groupeAbc" : "GROUPE-ABC",
        "refUserMat2" : "ENTITY-AB",
        "agenceBancABC" : "BANK_ABC",
        "firstCatAbc" : "CATEGORY-ABC-01",
        "secondCatAbc" : "CATEGORY-ABC-02",
        "benefOfEntityMat" : "BENEF-ABC-MAT",
        "benefOfCompteEntityMat" : "NA_BENEF-ABC-MAT",
        "nameOtherParam": "PARAM-MAT"
} 