{

    "url":"https://tokyo.datalog-finance.com:8443/tmsrenault50",
    "loginUrl": "https://tokyo.datalog-finance.com:8443/tmsrenault50/Dispatch.wss?handler=vxslogin",
    "user": "hbt1",
    "password":"123456",
    "newUser":"user2668",
    "lang": "0|fr",
    "oldPassword": "1234",
    "newPassword": "123456",
    "validUser": "valid",
    "nameEntity": "CV_AH_ENTITY-1",
    "nameBank": "CV_AH_BANK-1",
    "nameCompteEntity": "NA_COMPTE-12-57",
    "nameCategory" : "NA_CATEGORIE-12-57",
    "nameAgence": "MAT_AGENCE-1",
    "benefOfEntity": "NA_ENTITE_CODE-12-57",
    "benefOfCompteEntity": "NA_BANQUE_CODE-12-57",
    "nameOtherParam": "MAT_param",
    "newgroupe":"groupe-hbt2",
    "issuerEntity" : "issuer-hbt",
    "agentEntity" : "agent-hbt",
    "bankEntity" : "bank-hbt",
    "benefEntity" : "benef-hbt",
    "secissuerEntity" : "secissuer-hbt",
    "nettingEntity" : "netting-hbt",
    "internalEntity" : "internal-hbt",
    "ihbEntity" : "ihb-hbt",
    "guaranteeBenefEntity" : "guarantee-benef-hbt",
    "ecnEntity" : "ecn-hbt",
    "domiciliationEntity" : "domiciliation-hbt",
    "custodianEntity" : "custodian-hbt",
    "cptyEntity" : "cpty-hbt",
    "counterGuarantorEntity" : "counter-guarantor-hbt",
    "clrEntity" : "clr-hbt",
    "ccpEntity" : "ccp-hbt",
    "brkEntity" : "brk-hbt",
    "bkeEntity" : "bke-hbt",

    "entityA" : "entity-A",
    "entityB" : "entity-B",
    "entityC" : "entity-C"

} 