{
    "url":"http://172.32.4.35/tl50_refsql/",
    "loginUrl": "http://172.32.4.35/tl50_refsql/Dispatch.wss?handler=vxslogin",
    
    "user": "ADMIN",
    "validUser": "valid",
    "password":"1234",
    "lang": "0|fr",
    
    "newUser":"USER-SQL-01",
    "oldPassword": "1234",
    "newPassword": "123456",
    
    "codeProfils" : "9999",
    "newcollege":"SQL-COLLEGE-01",
    "newGroupe":"SQL-GROUPE-01",
    "codeRole" : "SQL-ROLE-01",
    "codeDomaine" : "SQL-DOMAINE-01",

    "motifEco" : "SQL-MOTIF-ECO",
    "motifRej" : "SQL-MOTIF-REJ",
    "codeBic" : "SQL-CODE-BIC",
    "codeBicIban" : "SQL-BIC-IBAN",

    "agentEntity" : "AGENT-SQL-01",
    "issuerEntity" : "ISSUER-SQL-01",
    "bankEntity" : "BANK-SQL-01",
    "benefEntity" : "BENEF-SQL-01",
    "secissuerEntity" : "SECISSUER-SQL-01",
    "nettingEntity" : "NETTING-SQL-01",
    "internalEntity" : "INTERNAL-SQL-01",
    "ihbEntity" : "IHB-SQL-01",
    "guaranteeBenefEntity" : "GUA-BENEF-SQL-01",
    "ecnEntity" : "ECN-SQL-01",
    "domiciliationEntity" : "DOM-SQL-01",
    "custodianEntity" : "CUS-SQL-01",
    "cptyEntity" : "CPTY-SQL-01",
    "counterGuarantorEntity" : "COUNT-GUA-SQL-01",
    "clrEntity" : "CLR-SQL-01",
    "ccpEntity" : "CCP-SQL-01",
    "brkEntity" : "BRK-SQL-01",
    "bkeEntity" : "BKE-SQL-01",

    "nameEntity": "ENTITY-SQL-01",
    "nameEntityDup": "ENTITY-SQL-DUP",
    "nameBank": "BANK-SQL-01",
    "nameBankDup": "BANK-SQL-DUP",
    "nameAgence": "AGENCE-SQL-01",
    "nameSecondAgence": "AGENCE-SQL-01-1",
    "nameCategory" : "CATEGORIE-SQL-01",
    "nameSecondCategory" : "CATEGORIE-SQL-01-1",
    "nameCompteEntity": "COMPTE-ENTITY-SQL-1",
    "nameCompteEntityRappro": "COMPTE-Rappro-SQL-1",
    "nameCompteEntityTreso": "COMPTE-Treso-SQL-1",
    "benefOfEntity": "BENEF-SQL-03",
    "benefOfEntityDup": "BENEF-SQL-DUP",
    "benefOfCompteEntity": "NA_BENEF-SQL-03",
    "benefOfCompteEntityDup": "NA_BENEF-SQL-DUP",
    "regrEntity" : "REGR-ENTITY-SQL-01",
    "regrCompte" : "REGR-COMPTE-SQL-01",
    "regrEmetteur" : "REGR-EMETTEUR-SQL-01",
    "codePays" : "aa",
    "codeDevises" : "ZWD",
    "deviseOne" : "USD",
    "deviseTwo" : "ZWD",
    "courDeviseOne" : "USD",
    "courDeviseTwo" : "ZWD",
    
    "compteBancExp" : "SQL-BANC-EXPL",
    "compteBancFin" : "SQL-BANC-FINC",
    "compteBancNa" : "SQL-BANC-NA",
    "compteBudgetNa" : "SQL-BUDG-NA",
    "compteCourantNa" : "SQL-COUR-NA",
    "compteCourantNetting" : "SQL-COUR-NETT",
    "compteInfoInfo" : "SQL-INFO-INFO",
    "compteInfoNa" : "SQL-INFO-NA",
    "compteInfoPro" : "SQL-INFO-PRO",
    "compteNaNa" : "SQL-NA-NA",
    
    "fileAct" : "FILE_ACT-02",
    "fileActDup" : "FILE_ACT_DUP-01",
    "liteFileAct" : "LITE_FILE_ACT-01",
    "liteFileActDup" : "LITE_FILE_ACT_DUP-01",
    "fin" : "FIN-02",
    "finDup" : "FIN_DUP-01",
    "liteFin" : "LITE_FIN-01",
    "liteFinDUP" : "LITE_FIN_DUP-01",
    "ebics" : "EBICS-01",
    "ebicsDup" : "EBICS_DUP-01",
    "ParamComm" : "PARAM_COMM-01",
    "ParamCommDup" : "PARAM_COMM_DUP-01",
    "identificateur" : "IDENTIFICATEUR-01",
    "identificateurDup" : "IDENTIFICATEUR_DUP-01",
    "codePlan" : "PLANIFICATEUR-01",
    "codePlanDup" : "PLANIFICATEUR_DUP-01",
    "fileNamePlan" : "PLAN-01",
    "fileNamePlanDup" : "PLAN_DUP-01",
    "codeCalendriers" : "CALENDRIERS-SQL-01",
    "nameCalendriersDup" : "CALENDRIERS-SQL-DUP",
    
    "codeInter" : "SQL-CODE-INTER",
    "catCodeFlux" : "SQL-CAT-CODE-FLUX",
    "codeFlux" : "SQL-CODE-FLUX",
    "catCodeBudget" : "SQL-CAT-CODE-BUD",
    "codeBudget" : "SQL-CODE-BUDGET",
    "codeFacture" : "SQL-CODE-FACTURE",
    "codeTypeBab" : "SQL-TYPE-BAB",
    "codeCreditCt" : "SQL-CREDIT-CT",
    "codePlacTerme" : "SQL-PLAC-TERME",
    "codeSicav" : "SQL-CODE-SICAV",
    "codeAchatVenteDevise" : "SQL-ACHAT-VENTE",

    "nomEquivalence" : "SQL-EQUI-01",
    "nomEquivalenceDup" : "SQL-EQUI-DUP",
    "libelleRegrRappro" : "SQL-REG-RAPPRO",
    "libelleRegrSimples" : "SQL-REG-SIMPLES",
    "libelleReglesAvecRegr" : "SQL-REGL-REGR",
    "libelleReglesAvecRegrDup" : "SQL-REGL-REGR-DUP",
    "libelleReglesAutoRapproDup" : "SQL-REGL-REGR-DUP",
    "natureComp" : "SQL-NATURE-COMP-01",

    "nomTabCorr" : "SQL-TAB-CORR-03",
    "formatImpExp" : "SQL-FOR-IMPEXP-03",
    "interImport" : "SQL-INT-IMP-03",
    "interExport" : "SQL-INT-EXP-03",
    "regleDispatch" : "SQL-REG-DIS-03",
    
    "codeZoneUtilisateur" : "AAA",
    
    "userMat1" : "TACHE1",
    "userMat2" : "TACHE2",
    "userMat3" : "TACHE3",
    "userMat4" : "TACHE4",
    "userMat5" : "TACHE5",
    "userMat6" : "TACHE6",
    "userMat7" : "TACHE7",
    "userMat8" : "TACHE8",
    "userMat9" : "TACHE9",
    "userMat10" : "TACHE10",
    "userMat11" : "TACHE11",
    "userMat12" : "TACHE12",
    "userMat13" : "TACHE13",
    "userMat14" : "TACHE14",
    "userMat15" : "TACHE15",
    
    "condDebit" : "COND_DEBIT-01",
    "condCredit" : "COND_CREDIT-01",
    "faciliteCaisse" : "FACILITE_CAISSE-01",
    "compteCourant" : "COMPTE_COURANT-01",

    "downloadFolder": "C:\\Users\\TEKLEND\\Downloads",
    
    "test-user" : "TEST-ROLE",

    "operationName" : "Vir de Trésorerie",
    "operationNum" : "2",
    "matTypePaiement" : "N.A.",
    "entityA" : "ENTITY-A",
    "entityB" : "ENTITY-B",
    "entityC" : "ENTITY-C",
    "emetteurA" : "ENTITY-A - ENTITY-A",
    "emetteurB" : "ENTITY-B - ENTITY-B",
    "emetteurC" : "ENTITY-C - ENTITY-C",
    "senderAccountA": "COMPTEA",
    "senderAccountB": "COMPTEB",
    "senderAccountC": "COMPTEC",
    "groupeAb" : "GROUPE-AB",
    "groupeAbc" : "GROUPE-ABC",
    "refUserMat2" : "ENTITY-AB",
    "agenceBancABC" : "BANK_ABC",
    "firstCatAbc" : "CATEGORY-ABC-01",
    "secondCatAbc" : "CATEGORY-ABC-02",
    "benefOfEntityMat" : "BENEF-ABC-MAT",
    "benefOfCompteEntityMat" : "NA_BENEF-ABC-MAT",
    "nameOtherParam": "PARAM-MAT"
} 