{
        "url": "https://tokyo.datalog-finance.com:8443/tmsrenault50/",
        "loginUrl":"https://tokyo.datalog-finance.com:8443/tmsrenault50/Dispatch.wss?handler=vxslogin",
        "user": "ADMIN",
        "password":"1234",
        "testCategory": "newCategory03",
        "newUser":"USER-RNT-01",
        "newcollege":"COLLEGE-RNT-04",
        "lang": "0|fr",
        "oldPassword": "1234",
        "newPassword": "123456",
        "validUser": "valid",
        "nameEntity": "ENTITY-RNT-32",
        "nameEntityDup": "ENTITY-RNT-DUP-32",
        "nameBank": "BANK-RNT-32",
        "nameBankDup": "BANK-RNT-DUP-32",
        "nameAgence": "AGENCE-RNT-32",
        "nameSecondAgence": "AGENCE-RNT-32-2",
        "nameCategory" : "CATEGORIE-RNT-32",
        "nameSecondCategory" : "CATEGORIE-RNT-32-2",
        "nameCompteEntity": "COMPTE-ENTITY-RNT-32",
        "benefOfEntity": "BENEF-RNT-33",
        "benefOfEntityDup": "BENEF-RNT-DUP-33",
        "benefOfCompteEntity": "NA_BENEF-RNT-33",
        "benefOfCompteEntityDup": "NA_BENEF-RNT-DUP-33",
        "nameOtherParam": "MAT_param",
        "newGroupe":"GROUPE-AB-04",

        "issuerEntity" : "issuer-hbt",
        "bankEntity" : "bank-hbt2",
        "benefEntity" : "benef-hbt2",
        "secissuerEntity" : "secissuer-hbt",
        "nettingEntity" : "netting-hbt",
        "internalEntity" : "internal-hbt",
        "ihbEntity" : "ihb-hbt",
        "guaranteeBenefEntity" : "guarantee-benef-hbt",
        "ecnEntity" : "ecn-hbt",
        "domiciliationEntity" : "domiciliation-hbt",
        "custodianEntity" : "custodian-hbt",
        "cptyEntity" : "cpty-hbt",
        "counterGuarantorEntity" : "counter-guarantor-hbt",
        "clrEntity" : "clr-hbt",
        "ccpEntity" : "ccp-hbt",
        "brkEntity" : "brk-hbt",
        "bkeEntity" : "bke-hbt",

        "entityA" : "ENTITY-A",
        "entityB" : "ENTITY-B",
        "entityC" : "ENTITY-C",

        "userMat1" : "TACHE1",
        "userMat2" : "TACHE2",
        "userMat3" : "TACHE3",
        "userMat4" : "TACHE4",
        "userMat5" : "TACHE5",
        "userMat6" : "TACHE6",
        "userMat7" : "TACHE7",
        "userMat8" : "TACHE8",
        "userMat9" : "TACHE9",
        "userMat10" : "TACHE10",
        "userMat11" : "TACHE11",
        "userMat12" : "TACHE12",
        "userMat13" : "TACHE13",
        "userMat14" : "TACHE14",
        "userMat15" : "TACHE15",

        "condDebit" : "COND_DEBIT-01",
        "condCredit" : "COND_CREDIT-01",
        "faciliteCaisse" : "FACILITE_CAISSE-01",
        "compteCourant" : "COMPTE_COURANT-01",

        "fileAct" : "FILE_ACT-08",
        "fileActDup" : "FILE_ACT_DUP-08",
        "liteFileAct" : "LITE_FILE_ACT-04",
        "liteFileActDup" : "LITE_FILE_ACT_DUP-04",
        "fin" : "FIN-04",
        "finDup" : "FIN_DUP-04",
        "liteFin" : "LITE_FIN-04",
        "liteFinDUP" : "LITE_FIN_DUP-04",
        "ebics" : "EBICS-04",
        "ebicsDup" : "EBICS_DUP-04",
        "ParamComm" : "PARAM_COMM-04",
        "ParamCommDup" : "PARAM_COMM_DUP-04",
        "identificateur" : "IDENTIFICATEUR-02",
        "identificateurDup" : "IDENTIFICATEUR_DUP-02",
        "codePlan" : "PLANIFICATEUR-02",
        "codePlanDup" : "PLANIFICATEUR_DUP-02",
        "fileNamePlan" : "PLAN-02",
        "fileNamePlanDup" : "PLAN_DUP-02",

        "downloadFolder": "C:\\Users\\TEKLEND\\Downloads",
        "codePays" : "ZZ",
        "codeDevises" : "ZWD",
        "deviseOne" : "USD",
        "deviseTwo" : "ZWD",
        "courDeviseOne" : "ZWD",
        "courDeviseTwo" : "USD",

        "test-user" : "TEST-ROLE"
} 